…
## See also

Other datasets:
[`esp_nuts_2024`](https://ropenspain.github.io/mapSpain/dev/reference/esp_nuts_2024.md),
[`esp_tiles_providers`](https://ropenspain.github.io/mapSpain/dev/reference/esp_tiles_providers.md),
[`pobmun25`](https://ropenspain.github.io/mapSpain/dev/reference/pobmun25.md)

## Examples

``` r
data("esp_codelist")
esp_codelist
#> # A tibble: 59 × 44
#>    nuts1.code nuts1.name nuts1.name.alt nuts1.shortname.es codauto
#>    <chr>      <chr>      <chr>          <chr>              <chr>  
#>  1 ES1        Noroeste   Noroeste       Noroeste           03     
#>  2 ES1        Noroeste   Noroeste       Noroeste           06     
#>  3 ES1        Noroeste   Noroeste       Noroeste           12     
#>  4 ES1        Noroeste   Noroeste       Noroeste           12     
#>  5 ES1        Noroeste   Noroeste       Noroeste           12     
#>  6 ES1        Noroeste   Noroeste       Noroeste           12     
#>  7 ES2        Noreste    Noreste        Noreste            02     
#>  8 ES2        Noreste    Noreste        Noreste            02     
#>  9 ES2        Noreste    Noreste        Noreste            02     
#> 10 ES2        Noreste    Noreste        Noreste            15     
#> # ℹ 49 more rows
#> # ℹ 39 more variables: iso2.ccaa.code <chr>, nuts2.code <chr>,
#> #   ine.ccaa.name <chr>, iso2.ccaa.name.es <chr>, iso2.ccaa.name.ca <chr>,
#> #   iso2.ccaa.name.gl <chr>, iso2.ccaa.name.eu <chr>, nuts2.name <chr>,
#> #   cldr.ccaa.name.en <chr>, cldr.ccaa.name.es <chr>, cldr.ccaa.name.ca <chr>,
#> #   cldr.ccaa.name.ga <chr>, cldr.ccaa.name.eu <chr>, ccaa.shortname.en <chr>,
#> #   ccaa.shortname.es <chr>, ccaa.shortname.ca <chr>, …
```
